<?xml version="1.0" encoding="UTF-8"?>
<!DOCTYPE svg PUBLIC "-//W3C//DTD SVG 1.1//EN" "http://www.w3.org/Graphics/SVG/1.1/DTD/svg11.dtd">
<!-- Creator: CorelDRAW X7 -->
<svg xmlns="http://www.w3.org/2000/svg" xml:space="preserve" width="297mm" height="210mm" version="1.1" style="shape-rendering:geometricPrecision; text-rendering:geometricPrecision; image-rendering:optimizeQuality; fill-rule:evenodd; clip-rule:evenodd"
viewBox="0 0 29700 21000"
 xmlns:xlink="http://www.w3.org/1999/xlink">
 <defs>
  <style type="text/css">
   <![CDATA[
    .fil3 {fill:#0D5C54}
    .fil0 {fill:#1F857B}
    .fil2 {fill:#45B5AA}
    .fil1 {fill:#4BCCBF}
    .fil4 {fill:#5A6E7A}
    .fil5 {fill:#A1C2CC}
    .fil6 {fill:white;fill-rule:nonzero}
   ]]>
  </style>
 </defs>
 <g id="Слой_x0020_1">
  <metadata id="CorelCorpID_0Corel-Layer"/>
  <g id="_1811214782784">
   <polygon class="fil0" points="5222,10246 1600,12214 5186,8591 5220,8593 "/>
   <polygon class="fil1" points="5222,10246 8845,12214 5259,8591 5225,8593 "/>
   <polygon class="fil2" points="8845,12216 5222,10247 7199,12214 "/>
   <polygon class="fil3" points="1600,12216 5222,10247 3245,12214 "/>
   <polygon class="fil4" points="5222,10985 5222,12214 3993,12214 "/>
   <polygon class="fil5" points="5222,10985 5222,12214 6452,12214 "/>
  </g>
  <path class="fil6" d="M10792 10396c-51,9 -117,16 -196,23 -79,6 -154,9 -224,9 -208,0 -361,-20 -459,-60 -99,-41 -164,-107 -197,-199 -32,-92 -48,-232 -48,-418 0,-183 17,-321 50,-414 33,-93 99,-160 197,-201 99,-41 251,-62 457,-62 72,0 146,4 223,10 76,6 139,15 189,25l0 231c-157,-12 -261,-17 -312,-17 -125,0 -212,8 -258,26 -47,17 -77,52 -90,105 -13,54 -20,153 -20,297 0,145 7,244 20,298 13,53 43,88 90,105 46,18 133,26 258,26 107,0 213,-5 320,-17l0 233zm709 17l0 -456 -546 -867 441 0 318 563 22 0 309 -563 431 0 -544 867 0 456 -431 0zm1218 -1323l809 0c169,0 296,27 380,83 83,55 125,138 125,250 0,93 -24,164 -71,213 -48,49 -123,81 -224,98l0 8c110,18 190,50 239,98 48,47 73,121 73,221 0,116 -41,203 -122,263 -81,59 -214,89 -400,89l-809 0 0 -1323zm671 533c59,0 103,-4 132,-12 30,-8 50,-21 61,-41 11,-20 17,-50 17,-90 0,-42 -5,-73 -15,-92 -11,-19 -30,-32 -58,-39 -29,-8 -75,-11 -137,-11l-246 0 0 285 246 0zm11 542c62,0 108,-4 137,-12 28,-7 48,-21 59,-41 11,-20 17,-52 17,-95 0,-44 -6,-76 -17,-96 -11,-21 -31,-35 -61,-43 -29,-7 -74,-11 -135,-11l-257 0 0 298 257 0zm1002 248l0 -1323 1143 0 0 248 -715 0 0 283 613 0 0 248 -613 0 0 296 715 0 0 248 -1143 0zm2432 0l-221 -463 -276 0 0 463 -428 0 0 -1323 782 0c156,0 274,16 353,49 79,33 132,79 159,139 27,61 40,141 40,241 0,93 -15,173 -44,239 -30,66 -89,115 -180,145l266 510 -451 0zm-281 -710c81,0 138,-4 172,-13 34,-9 57,-25 68,-49 11,-24 16,-64 16,-120 0,-58 -5,-99 -15,-122 -10,-24 -32,-40 -66,-49 -34,-8 -92,-12 -173,-12l-218 0 0 365 216 0zm2480 725c-230,0 -434,-10 -611,-32l0 -235c229,13 391,19 486,19 76,0 135,-2 177,-7 43,-5 73,-14 91,-27 17,-12 27,-26 32,-43 5,-16 7,-40 7,-71 0,-41 -4,-70 -11,-87 -7,-18 -23,-30 -46,-38 -23,-7 -62,-14 -117,-21l-307 -31c-140,-14 -234,-52 -284,-113 -50,-62 -75,-150 -75,-266 0,-111 27,-196 80,-255 54,-59 127,-98 219,-118 92,-19 209,-29 350,-29 175,0 355,13 539,39l0 231c-166,-14 -313,-21 -442,-21 -136,0 -224,9 -262,26 -22,9 -36,22 -42,38 -5,16 -8,41 -8,74 0,37 3,64 8,79 6,15 18,26 38,34 19,7 52,13 100,18l329 33c74,7 135,20 184,38 48,18 89,49 120,92 38,57 58,138 58,243 0,123 -25,216 -75,279 -49,62 -117,103 -203,123 -85,19 -197,28 -335,28zm2035 -32c-52,9 -117,16 -197,23 -79,6 -153,9 -223,9 -208,0 -362,-20 -460,-60 -99,-41 -164,-107 -196,-199 -32,-92 -48,-232 -48,-418 0,-183 16,-321 49,-414 33,-93 99,-160 198,-201 98,-41 251,-62 457,-62 72,0 146,4 222,10 76,6 140,15 189,25l0 231c-156,-12 -260,-17 -312,-17 -125,0 -211,8 -258,26 -47,17 -77,52 -90,105 -13,54 -19,153 -19,297 0,145 6,244 19,298 13,53 43,88 90,105 47,18 133,26 258,26 107,0 214,-5 321,-17l0 233zm333 17l0 -1323 431 0 0 1323 -431 0zm839 0l0 -1323 1144 0 0 248 -716 0 0 283 613 0 0 248 -613 0 0 296 716 0 0 248 -1144 0zm2485 0l-558 -756 -14 0 0 756 -411 0 0 -1323 434 0 522 694 13 0 0 -694 412 0 0 1323 -398 0zm1883 -17c-51,9 -117,16 -196,23 -79,6 -154,9 -224,9 -208,0 -361,-20 -460,-60 -98,-41 -163,-107 -196,-199 -32,-92 -48,-232 -48,-418 0,-183 17,-321 50,-414 33,-93 99,-160 197,-201 99,-41 251,-62 457,-62 72,0 146,4 223,10 76,6 139,15 189,25l0 231c-157,-12 -261,-17 -312,-17 -125,0 -212,8 -258,26 -47,17 -77,52 -90,105 -13,54 -20,153 -20,297 0,145 7,244 20,298 13,53 43,88 90,105 46,18 133,26 258,26 107,0 213,-5 320,-17l0 233zm336 17l0 -1323 1144 0 0 248 -715 0 0 283 613 0 0 248 -613 0 0 296 715 0 0 248 -1144 0z"/>
  <g id="_1811214783040">
   <path class="fil6" d="M9657 11743l83 0 4 87 7 0c10,-36 26,-60 49,-74 23,-13 53,-20 91,-20l0 91c-37,0 -66,6 -87,19 -21,13 -35,32 -43,58 -8,26 -12,62 -12,107l0 213 -92 0 0 -481zm736 271l-277 0c0,44 3,75 7,93 5,18 16,31 33,38 18,7 47,10 87,10 34,0 79,-3 134,-9l0 71c-17,5 -41,8 -69,11 -29,2 -57,3 -84,3 -60,0 -104,-7 -132,-23 -28,-15 -46,-39 -55,-73 -9,-33 -13,-83 -13,-150 0,-66 4,-116 12,-150 8,-33 26,-58 53,-75 27,-16 69,-24 127,-24 56,0 96,8 121,24 25,16 41,40 47,72 6,33 9,83 9,152l0 30zm-179 -202c-30,0 -51,4 -64,10 -13,7 -22,20 -26,38 -5,18 -7,48 -8,90l189 0 0 -5c0,-40 -3,-69 -8,-88 -5,-18 -14,-30 -26,-36 -12,-6 -31,-9 -57,-9zm508 419c-24,0 -50,-1 -80,-3 -29,-3 -55,-6 -76,-9l0 -73c45,5 93,8 144,8 26,0 45,-2 57,-6 13,-5 21,-11 25,-20 4,-9 6,-22 6,-39 0,-19 -2,-32 -4,-40 -3,-8 -7,-13 -13,-16 -7,-3 -18,-5 -33,-7l-104 -14c-36,-5 -60,-17 -73,-37 -12,-21 -18,-53 -18,-97 0,-39 7,-69 20,-89 14,-21 33,-35 57,-42 25,-8 56,-11 94,-11 24,0 49,1 75,4 26,2 47,5 64,10l0 72c-42,-6 -86,-9 -132,-9 -34,0 -57,4 -70,12 -13,8 -20,25 -20,51 0,17 1,29 4,37 2,7 6,13 12,16 7,3 17,6 30,7l107 14c22,3 40,8 53,16 13,7 23,20 29,39 7,18 10,45 10,81 0,39 -6,69 -18,90 -12,21 -30,36 -54,44 -23,7 -54,11 -92,11zm692 -217l-277 0c0,44 2,75 7,93 5,18 16,31 33,38 17,7 46,10 87,10 34,0 79,-3 134,-9l0 71c-18,5 -41,8 -70,11 -29,2 -57,3 -84,3 -59,0 -103,-7 -131,-23 -28,-15 -46,-39 -55,-73 -9,-33 -13,-83 -13,-150 0,-66 4,-116 12,-150 8,-33 26,-58 53,-75 27,-16 69,-24 127,-24 56,0 96,8 121,24 25,16 40,40 47,72 6,33 9,83 9,152l0 30zm-179 -202c-30,0 -52,4 -65,10 -12,7 -21,20 -25,38 -5,18 -7,48 -8,90l188 0 0 -5c0,-40 -2,-69 -7,-88 -5,-18 -14,-30 -26,-36 -12,-6 -31,-9 -57,-9zm471 419c-46,0 -80,-10 -102,-32 -22,-21 -33,-57 -33,-109 0,-37 5,-66 13,-87 8,-20 22,-35 41,-45 20,-9 47,-14 82,-14 32,0 78,1 139,4l0 -26c0,-35 -3,-60 -9,-74 -5,-15 -16,-24 -32,-28 -16,-5 -42,-7 -79,-7 -18,0 -40,1 -66,3 -26,2 -47,4 -61,6l0 -73c47,-9 99,-13 156,-13 52,0 91,6 117,18 26,12 43,31 52,57 9,26 13,64 13,113l0 300 -83 0 -4 -62 -5 0c-12,27 -30,46 -54,55 -25,10 -53,14 -85,14zm39 -76c22,0 40,-2 54,-7 13,-5 24,-15 32,-29 10,-20 15,-49 15,-88l0 -23 -116 0c-20,0 -34,2 -44,5 -9,4 -16,11 -19,21 -4,10 -6,27 -6,49 0,20 2,36 6,46 4,10 12,17 24,20 11,4 29,6 54,6zm392 -412l83 0 4 87 6 0c10,-36 27,-60 50,-74 23,-13 53,-20 91,-20l0 91c-37,0 -66,6 -87,19 -21,13 -35,32 -43,58 -9,26 -13,62 -13,107l0 213 -91 0 0 -481zm664 475c-15,4 -33,7 -56,10 -22,2 -43,3 -63,3 -54,0 -93,-8 -119,-25 -25,-17 -41,-42 -49,-75 -7,-34 -10,-83 -10,-147 0,-64 4,-113 12,-147 9,-34 26,-60 51,-76 25,-17 63,-25 113,-25 20,0 41,1 63,4 22,2 40,5 55,9l0 73c-32,-6 -63,-9 -96,-9 -32,0 -55,4 -70,13 -14,9 -24,25 -29,48 -5,23 -7,59 -7,110 0,50 3,88 8,111 5,23 14,39 29,47 15,8 39,12 71,12 34,0 67,-3 97,-8l0 72zm448 -262c0,-44 -2,-75 -6,-94 -4,-18 -12,-30 -23,-36 -11,-5 -31,-8 -59,-8 -28,0 -50,5 -64,17 -13,11 -22,27 -26,49 -4,21 -6,52 -6,91l0 249 -91 0 0 -700 91 0 0 278 6 0c10,-22 25,-38 46,-49 21,-11 49,-16 84,-16 39,0 69,6 89,19 20,13 33,32 40,58 7,26 11,61 11,106l0 304 -92 0 0 -268zm658 275c-47,0 -81,-10 -103,-32 -21,-21 -32,-57 -32,-109 0,-37 4,-66 12,-87 8,-20 22,-35 42,-45 19,-9 46,-14 82,-14 32,0 78,1 138,4l0 -26c0,-35 -3,-60 -8,-74 -6,-15 -17,-24 -32,-28 -16,-5 -42,-7 -80,-7 -17,0 -39,1 -66,3 -26,2 -46,4 -61,6l0 -73c47,-9 99,-13 157,-13 52,0 91,6 116,18 26,12 44,31 52,57 9,26 14,64 14,113l0 300 -83 0 -4 -62 -6 0c-12,27 -30,46 -54,55 -24,10 -52,14 -84,14zm38 -76c22,0 40,-2 54,-7 14,-5 24,-15 32,-29 10,-20 15,-49 15,-88l0 -23 -116 0c-19,0 -34,2 -43,5 -10,4 -16,11 -20,21 -4,10 -6,27 -6,49 0,20 2,36 7,46 4,10 11,17 23,20 12,4 30,6 54,6zm668 -199c0,-44 -2,-75 -7,-94 -4,-18 -11,-30 -23,-36 -11,-5 -30,-8 -58,-8 -29,0 -50,5 -64,17 -14,11 -23,27 -27,49 -3,21 -5,52 -5,91l0 249 -92 0 0 -481 83 0 4 64 7 0c10,-23 25,-41 47,-53 21,-12 50,-18 86,-18 40,0 70,6 90,19 19,13 33,32 40,58 6,26 10,62 10,107l0 304 -91 0 0 -268zm426 275c-40,0 -71,-7 -92,-21 -22,-15 -38,-40 -47,-75 -9,-35 -14,-85 -14,-150 0,-66 4,-116 14,-152 9,-35 24,-60 46,-75 21,-15 52,-22 91,-22 32,0 59,4 80,14 21,9 37,26 49,49l5 0 0 -275 92 0 0 700 -84 0 -4 -63 -5 0c-11,27 -28,46 -50,56 -23,10 -50,14 -81,14zm36 -82c24,0 43,-3 56,-11 13,-7 23,-19 28,-36 5,-14 9,-30 10,-48 2,-19 2,-43 2,-74 0,-51 -3,-87 -10,-109 -6,-19 -15,-33 -29,-41 -13,-8 -32,-12 -58,-12 -30,0 -51,3 -64,11 -12,7 -21,21 -25,43 -5,22 -7,59 -7,112 0,52 2,89 7,111 4,23 13,37 26,44 13,7 34,10 64,10zm782 82c-39,0 -70,-7 -92,-21 -21,-15 -37,-40 -46,-75 -10,-35 -14,-85 -14,-150 0,-66 4,-116 13,-152 9,-35 25,-60 46,-75 22,-15 52,-22 91,-22 33,0 60,4 81,14 21,9 37,26 48,49l6 0 0 -275 92 0 0 700 -84 0 -4 -63 -6 0c-10,27 -27,46 -50,56 -22,10 -49,14 -81,14zm37 -82c24,0 42,-3 56,-11 13,-7 22,-19 28,-36 5,-14 8,-30 10,-48 1,-19 2,-43 2,-74 0,-51 -3,-87 -10,-109 -6,-19 -15,-33 -29,-41 -13,-8 -33,-12 -58,-12 -30,0 -51,3 -64,11 -13,7 -21,21 -25,43 -5,22 -7,59 -7,112 0,52 2,89 7,111 4,23 13,37 25,44 13,7 35,10 65,10zm740 -135l-277 0c0,44 2,75 7,93 5,18 16,31 33,38 17,7 46,10 87,10 34,0 79,-3 134,-9l0 71c-18,5 -41,8 -70,11 -29,2 -57,3 -84,3 -59,0 -103,-7 -131,-23 -28,-15 -47,-39 -55,-73 -9,-33 -14,-83 -14,-150 0,-66 5,-116 13,-150 8,-33 25,-58 52,-75 27,-16 70,-24 128,-24 56,0 96,8 121,24 25,16 40,40 46,72 7,33 10,83 10,152l0 30zm-179 -202c-30,0 -52,4 -65,10 -13,7 -21,20 -26,38 -4,18 -7,48 -7,90l188 0 0 -5c0,-40 -2,-69 -7,-88 -5,-18 -14,-30 -26,-36 -12,-6 -31,-9 -57,-9zm452 412l-145 -481 94 0 108 384 7 0 107 -384 93 0 -145 481 -119 0zm761 -210l-277 0c0,44 2,75 7,93 4,18 15,31 33,38 17,7 46,10 87,10 34,0 78,-3 134,-9l0 71c-18,5 -41,8 -70,11 -29,2 -57,3 -84,3 -60,0 -103,-7 -131,-23 -28,-15 -47,-39 -55,-73 -9,-33 -14,-83 -14,-150 0,-66 4,-116 13,-150 8,-33 25,-58 52,-75 27,-16 70,-24 128,-24 56,0 96,8 121,24 24,16 40,40 46,72 7,33 10,83 10,152l0 30zm-179 -202c-30,0 -52,4 -65,10 -13,7 -21,20 -26,38 -4,18 -7,48 -7,90l188 0 0 -5c0,-40 -2,-69 -7,-88 -5,-18 -14,-30 -26,-36 -13,-6 -32,-9 -57,-9zm363 412l0 -700 91 0 0 700 -91 0zm465 7c-60,0 -103,-6 -129,-20 -26,-14 -43,-37 -51,-70 -7,-32 -11,-85 -11,-157 0,-73 4,-126 11,-159 8,-32 25,-55 51,-69 26,-13 69,-20 129,-20 61,0 104,7 130,20 26,14 43,37 50,69 8,33 12,86 12,159 0,72 -4,125 -12,157 -7,33 -24,56 -50,70 -26,14 -69,20 -130,20zm0 -77c34,0 58,-4 71,-11 13,-8 21,-22 24,-44 4,-21 5,-60 5,-115 0,-57 -1,-96 -5,-117 -3,-21 -11,-35 -24,-43 -13,-7 -37,-11 -71,-11 -33,0 -56,4 -70,11 -13,8 -21,22 -24,43 -3,21 -5,60 -5,117 0,55 2,94 5,115 3,22 11,36 24,44 14,7 37,11 70,11zm375 -411l83 0 4 64 7 0c10,-27 27,-46 50,-56 22,-10 49,-15 80,-15 39,0 70,7 92,21 21,15 37,40 46,75 10,35 14,85 14,151 0,65 -4,115 -13,151 -9,35 -25,61 -46,75 -21,15 -52,22 -90,22 -33,0 -60,-4 -81,-14 -21,-10 -37,-26 -49,-50l-5 0 0 242 -92 0 0 -666zm188 406c30,0 52,-3 64,-10 13,-7 22,-21 26,-44 5,-22 7,-59 7,-111 0,-53 -2,-90 -7,-112 -4,-22 -13,-37 -26,-44 -12,-7 -34,-10 -64,-10 -24,0 -43,4 -56,11 -14,8 -23,20 -29,38 -5,13 -8,28 -9,46 -2,18 -2,41 -2,71 0,52 3,89 9,111 6,19 16,33 30,42 13,8 32,12 57,12zm890 -193c0,-44 -2,-75 -6,-94 -3,-18 -10,-30 -20,-36 -11,-5 -29,-8 -54,-8 -26,0 -45,5 -58,16 -13,10 -21,26 -25,48 -3,21 -5,52 -5,93l0 249 -92 0 0 -268c0,-44 -1,-76 -5,-94 -3,-18 -10,-30 -20,-36 -10,-5 -28,-8 -53,-8 -26,0 -46,5 -58,16 -13,11 -21,27 -25,49 -4,21 -5,52 -5,92l0 249 -92 0 0 -481 83 0 4 64 6 0c10,-23 25,-41 45,-53 21,-12 48,-18 83,-18 36,0 63,5 82,17 18,11 31,29 38,54l6 0c20,-47 63,-71 130,-71 36,0 64,6 83,19 20,13 32,32 39,58 7,27 10,62 10,107l0 304 -91 0 0 -268zm642 58l-277 0c0,44 3,75 7,93 5,18 16,31 33,38 18,7 47,10 87,10 34,0 79,-3 134,-9l0 71c-17,5 -41,8 -69,11 -29,2 -57,3 -84,3 -60,0 -104,-7 -132,-23 -28,-15 -46,-39 -55,-73 -9,-33 -13,-83 -13,-150 0,-66 4,-116 12,-150 8,-33 26,-58 53,-75 27,-16 69,-24 127,-24 56,0 96,8 121,24 25,16 41,40 47,72 6,33 9,83 9,152l0 30zm-179 -202c-30,0 -51,4 -64,10 -13,7 -22,20 -26,38 -5,18 -7,48 -8,90l189 0 0 -5c0,-40 -3,-69 -8,-88 -5,-18 -13,-30 -26,-36 -12,-6 -31,-9 -57,-9zm638 144c0,-44 -2,-75 -6,-94 -4,-18 -12,-30 -23,-36 -11,-5 -31,-8 -58,-8 -29,0 -51,5 -64,17 -14,11 -23,27 -27,49 -4,21 -5,52 -5,91l0 249 -92 0 0 -481 83 0 4 64 6 0c10,-23 26,-41 48,-53 21,-12 50,-18 86,-18 40,0 70,6 89,19 20,13 33,32 40,58 7,26 11,62 11,107l0 304 -92 0 0 -268zm327 268l0 -403 -82 0 0 -78 82 0 0 -139 92 0 0 139 97 0 0 78 -97 0 0 403 -92 0zm778 7c-61,0 -104,-6 -130,-20 -26,-14 -43,-37 -50,-70 -8,-32 -12,-85 -12,-157 0,-73 4,-126 12,-159 7,-32 24,-55 50,-69 26,-13 69,-20 130,-20 60,0 103,7 129,20 26,14 43,37 51,69 7,33 11,86 11,159 0,72 -4,125 -11,157 -8,33 -25,56 -51,70 -26,14 -69,20 -129,20zm0 -77c34,0 57,-4 70,-11 13,-8 22,-22 25,-44 3,-21 4,-60 4,-115 0,-57 -1,-96 -4,-117 -3,-21 -12,-35 -25,-43 -13,-7 -36,-11 -70,-11 -34,0 -57,4 -70,11 -13,8 -21,22 -25,43 -3,21 -4,60 -4,117 0,55 1,94 4,115 4,22 12,36 25,44 13,7 36,11 70,11zm412 -333l-82 0 0 -78 82 0 0 -63c0,-49 6,-84 18,-105 11,-22 30,-35 55,-41 26,-6 67,-9 123,-9l0 69c-31,0 -54,2 -68,5 -14,3 -24,10 -29,19 -5,9 -7,25 -7,46l0 79 104 0 0 78 -104 0 0 403 -92 0 0 -403zm610 -204l0 -93 95 0 0 93 -95 0zm2 607l0 -481 91 0 0 481 -91 0zm566 -268c0,-44 -2,-75 -6,-94 -4,-18 -12,-30 -23,-36 -11,-5 -31,-8 -58,-8 -29,0 -51,5 -64,17 -14,11 -23,27 -27,49 -4,21 -6,52 -6,91l0 249 -91 0 0 -481 83 0 4 64 6 0c10,-23 26,-41 47,-53 22,-12 51,-18 87,-18 40,0 69,6 89,19 20,13 33,32 40,58 7,26 11,62 11,107l0 304 -92 0 0 -268zm566 0c0,-44 -2,-75 -6,-94 -4,-18 -12,-30 -23,-36 -12,-5 -31,-8 -59,-8 -29,0 -50,5 -64,17 -14,11 -23,27 -26,49 -4,21 -6,52 -6,91l0 249 -91 0 0 -481 83 0 3 64 7 0c10,-23 26,-41 47,-53 21,-12 50,-18 87,-18 39,0 69,6 89,19 20,13 33,32 40,58 7,26 10,62 10,107l0 304 -91 0 0 -268zm464 275c-60,0 -103,-6 -129,-20 -26,-14 -43,-37 -51,-70 -7,-32 -11,-85 -11,-157 0,-73 4,-126 11,-159 8,-32 25,-55 51,-69 26,-13 69,-20 129,-20 61,0 104,7 130,20 26,14 43,37 50,69 8,33 12,86 12,159 0,72 -4,125 -12,157 -7,33 -24,56 -50,70 -26,14 -69,20 -130,20zm0 -77c34,0 58,-4 71,-11 13,-8 21,-22 25,-44 3,-21 4,-60 4,-115 0,-57 -1,-96 -4,-117 -4,-21 -12,-35 -25,-43 -13,-7 -37,-11 -71,-11 -33,0 -56,4 -69,11 -14,8 -22,22 -25,43 -3,21 -5,60 -5,117 0,55 2,94 5,115 3,22 11,36 25,44 13,7 36,11 69,11zm465 70l-145 -481 94 0 108 384 7 0 107 -384 93 0 -145 481 -119 0zm517 7c-47,0 -81,-10 -103,-32 -21,-21 -32,-57 -32,-109 0,-37 4,-66 12,-87 8,-20 22,-35 42,-45 19,-9 46,-14 82,-14 32,0 78,1 138,4l0 -26c0,-35 -3,-60 -8,-74 -6,-15 -17,-24 -32,-28 -16,-5 -43,-7 -80,-7 -17,0 -39,1 -66,3 -26,2 -46,4 -61,6l0 -73c47,-9 99,-13 157,-13 52,0 91,6 116,18 26,12 43,31 52,57 9,26 13,64 13,113l0 300 -82 0 -4 -62 -6 0c-12,27 -30,46 -54,55 -24,10 -52,14 -84,14zm38 -76c22,0 40,-2 54,-7 14,-5 24,-15 32,-29 10,-20 15,-49 15,-88l0 -23 -116 0c-19,0 -34,2 -43,5 -10,4 -16,11 -20,21 -4,10 -6,27 -6,49 0,20 2,36 6,46 5,10 12,17 24,20 12,4 30,6 54,6zm424 69l0 -403 -82 0 0 -78 82 0 0 -139 92 0 0 139 97 0 0 78 -97 0 0 403 -92 0zm343 -607l0 -93 95 0 0 93 -95 0zm1 607l0 -481 92 0 0 481 -92 0zm466 7c-60,0 -103,-6 -130,-20 -26,-14 -42,-37 -50,-70 -8,-32 -11,-85 -11,-157 0,-73 3,-126 11,-159 8,-32 24,-55 50,-69 27,-13 70,-20 130,-20 60,0 103,7 130,20 26,14 42,37 50,69 8,33 11,86 11,159 0,72 -3,125 -11,157 -8,33 -24,56 -50,70 -27,14 -70,20 -130,20zm0 -77c34,0 57,-4 71,-11 13,-8 21,-22 24,-44 3,-21 5,-60 5,-115 0,-57 -2,-96 -5,-117 -3,-21 -11,-35 -24,-43 -14,-7 -37,-11 -71,-11 -33,0 -57,4 -70,11 -13,8 -21,22 -24,43 -3,21 -5,60 -5,117 0,55 2,94 5,115 3,22 11,36 24,44 13,7 37,11 70,11z"/>
   <path class="fil6" d="M27500 11956c0,-44 -2,-75 -6,-94 -4,-18 -12,-30 -23,-36 -11,-5 -31,-8 -58,-8 -29,0 -51,5 -64,17 -14,11 -23,27 -27,49 -4,21 -5,52 -5,91l0 249 -92 0 0 -481 83 0 4 64 6 0c10,-23 26,-41 48,-53 21,-12 50,-18 86,-18 40,0 70,6 89,19 20,13 33,32 40,58 7,26 11,62 11,107l0 304 -92 0 0 -268zm436 275c-24,0 -51,-1 -80,-3 -30,-3 -55,-6 -77,-9l0 -73c46,5 94,8 145,8 25,0 44,-2 57,-6 13,-5 21,-11 24,-20 4,-9 6,-22 6,-39 0,-19 -1,-32 -4,-40 -2,-8 -7,-13 -13,-16 -6,-3 -17,-5 -33,-7l-103 -14c-36,-5 -60,-17 -73,-37 -13,-21 -19,-53 -19,-97 0,-39 7,-69 21,-89 14,-21 33,-35 57,-42 24,-8 55,-11 94,-11 24,0 48,1 75,4 26,2 47,5 63,10l0 72c-42,-6 -86,-9 -132,-9 -33,0 -56,4 -69,12 -14,8 -20,25 -20,51 0,17 1,29 3,37 2,7 6,13 13,16 6,3 16,6 30,7l106 14c23,3 41,8 54,16 12,7 22,20 29,39 6,18 10,45 10,81 0,39 -6,69 -19,90 -12,21 -30,36 -53,44 -24,7 -55,11 -92,11z"/>
  </g>
 </g>
</svg>
